%YAML 1.1
%TAG !u! tag:unity3d.com,2011:
--- !u!1001 &3092350581023366413
PrefabInstance:
  m_ObjectHideFlags: 0
  serializedVersion: 2
  m_Modification:
    m_TransformParent: {fileID: 0}
    m_Modifications:
    - target: {fileID: 803495133056919301, guid: 284148a5985781342877af69bf326a2e,
        type: 3}
      propertyPath: m_Name
      value: ArbolKepSpace
      objectReference: {fileID: 0}
    - target: {fileID: 803495133056919301, guid: 284148a5985781342877af69bf326a2e,
        type: 3}
      propertyPath: m_TagString
      value: Estructura
      objectReference: {fileID: 0}
    - target: {fileID: 2504445313462417632, guid: 284148a5985781342877af69bf326a2e,
        type: 3}
      propertyPath: m_Convex
      value: 0
      objectReference: {fileID: 0}
    - target: {fileID: 3467624821405806091, guid: 284148a5985781342877af69bf326a2e,
        type: 3}
      propertyPath: m_Materials.Array.data[0]
      value: 
      objectReference: {fileID: 2100000, guid: ef2b6a80d457d2744a20aba296a347ae, type: 2}
    - target: {fileID: 7172418204356604479, guid: 284148a5985781342877af69bf326a2e,
        type: 3}
      propertyPath: m_RootOrder
      value: 0
      objectReference: {fileID: 0}
    - target: {fileID: 7172418204356604479, guid: 284148a5985781342877af69bf326a2e,
        type: 3}
      propertyPath: m_LocalScale.x
      value: 5
      objectReference: {fileID: 0}
    - target: {fileID: 7172418204356604479, guid: 284148a5985781342877af69bf326a2e,
        type: 3}
      propertyPath: m_LocalScale.y
      value: 5
      objectReference: {fileID: 0}
    - target: {fileID: 7172418204356604479, guid: 284148a5985781342877af69bf326a2e,
        type: 3}
      propertyPath: m_LocalScale.z
      value: 5
      objectReference: {fileID: 0}
    - target: {fileID: 7172418204356604479, guid: 284148a5985781342877af69bf326a2e,
        type: 3}
      propertyPath: m_LocalPosition.x
      value: 0
      objectReference: {fileID: 0}
    - target: {fileID: 7172418204356604479, guid: 284148a5985781342877af69bf326a2e,
        type: 3}
      propertyPath: m_LocalPosition.y
      value: 0
      objectReference: {fileID: 0}
    - target: {fileID: 7172418204356604479, guid: 284148a5985781342877af69bf326a2e,
        type: 3}
      propertyPath: m_LocalPosition.z
      value: 0
      objectReference: {fileID: 0}
    - target: {fileID: 7172418204356604479, guid: 284148a5985781342877af69bf326a2e,
        type: 3}
      propertyPath: m_LocalRotation.w
      value: 1
      objectReference: {fileID: 0}
    - target: {fileID: 7172418204356604479, guid: 284148a5985781342877af69bf326a2e,
        type: 3}
      propertyPath: m_LocalRotation.x
      value: 0
      objectReference: {fileID: 0}
    - target: {fileID: 7172418204356604479, guid: 284148a5985781342877af69bf326a2e,
        type: 3}
      propertyPath: m_LocalRotation.y
      value: -0
      objectReference: {fileID: 0}
    - target: {fileID: 7172418204356604479, guid: 284148a5985781342877af69bf326a2e,
        type: 3}
      propertyPath: m_LocalRotation.z
      value: -0
      objectReference: {fileID: 0}
    - target: {fileID: 7172418204356604479, guid: 284148a5985781342877af69bf326a2e,
        type: 3}
      propertyPath: m_LocalEulerAnglesHint.x
      value: 0
      objectReference: {fileID: 0}
    - target: {fileID: 7172418204356604479, guid: 284148a5985781342877af69bf326a2e,
        type: 3}
      propertyPath: m_LocalEulerAnglesHint.y
      value: 0
      objectReference: {fileID: 0}
    - target: {fileID: 7172418204356604479, guid: 284148a5985781342877af69bf326a2e,
        type: 3}
      propertyPath: m_LocalEulerAnglesHint.z
      value: 0
      objectReference: {fileID: 0}
    - target: {fileID: 7172418204356604479, guid: 284148a5985781342877af69bf326a2e,
        type: 3}
      propertyPath: m_ConstrainProportionsScale
      value: 1
      objectReference: {fileID: 0}
    m_RemovedComponents:
    - {fileID: 2504445313462417632, guid: 284148a5985781342877af69bf326a2e, type: 3}
  m_SourcePrefab: {fileID: 100100000, guid: 284148a5985781342877af69bf326a2e, type: 3}
--- !u!1 &2435509416980789768 stripped
GameObject:
  m_CorrespondingSourceObject: {fileID: 803495133056919301, guid: 284148a5985781342877af69bf326a2e,
    type: 3}
  m_PrefabInstance: {fileID: 3092350581023366413}
  m_PrefabAsset: {fileID: 0}
--- !u!54 &-8244690042029799953
Rigidbody:
  m_ObjectHideFlags: 0
  m_CorrespondingSourceObject: {fileID: 0}
  m_PrefabInstance: {fileID: 0}
  m_PrefabAsset: {fileID: 0}
  m_GameObject: {fileID: 2435509416980789768}
  serializedVersion: 2
  m_Mass: 1
  m_Drag: 0
  m_AngularDrag: 0.05
  m_UseGravity: 1
  m_IsKinematic: 0
  m_Interpolate: 0
  m_Constraints: 126
  m_CollisionDetection: 0
--- !u!114 &1728617881004804533
MonoBehaviour:
  m_ObjectHideFlags: 0
  m_CorrespondingSourceObject: {fileID: 0}
  m_PrefabInstance: {fileID: 0}
  m_PrefabAsset: {fileID: 0}
  m_GameObject: {fileID: 2435509416980789768}
  m_Enabled: 1
  m_EditorHideFlags: 0
  m_Script: {fileID: 11500000, guid: db123418e9ecd634eace55912b6d8f6d, type: 3}
  m_Name: 
  m_EditorClassIdentifier: 
--- !u!65 &6124214713955749648
BoxCollider:
  m_ObjectHideFlags: 0
  m_CorrespondingSourceObject: {fileID: 0}
  m_PrefabInstance: {fileID: 0}
  m_PrefabAsset: {fileID: 0}
  m_GameObject: {fileID: 2435509416980789768}
  m_Material: {fileID: 0}
  m_IsTrigger: 0
  m_Enabled: 1
  serializedVersion: 2
  m_Size: {x: 0.67564034, y: 0.5219779, z: 0.8608929}
  m_Center: {x: -0.0027101487, y: 0.26018167, z: -0.055735007}
